^C:\USERS\GLIZZ\SOURCE\REPOS\PLAYING-CARDS\PLAYINGCARDS\PLAYINGCARDS.CPP
C:\USERS\GLIZZ\SOURCE\REPOS\PLAYING-CARDS\PLAYINGCARDS\DEBUG\VC142.PDB
C:\USERS\GLIZZ\SOURCE\REPOS\PLAYING-CARDS\PLAYINGCARDS\DEBUG\VC142.IDB
C:\USERS\GLIZZ\SOURCE\REPOS\PLAYING-CARDS\PLAYINGCARDS\DEBUG\PLAYINGCARDS.OBJ
